…
Read and manipulate data from “pols-month.csv”

``` r
pols = 
  read_csv("./fivethirtyeight_datasets/pols-month.csv", show_col_types = FALSE) %>% 
  separate(mon, into = c('year', 'month', 'day'), sep = "-", convert = TRUE) %>% 
  mutate(month = month.name[month]) %>% 
  mutate(president = recode(prez_dem, `1` = "dem", `0` = "gop")) %>% 
  #filter(prez_gop == 2)
  select(-c(prez_dem, prez_gop, day))
pols
```

    ## # A tibble: 822 × 9
    ##     year month     gov_gop sen_gop rep_gop gov_dem sen_dem rep_dem president
    ##    <int> <chr>       <dbl>   <dbl>   <dbl>   <dbl>   <dbl>   <dbl> <chr>    
    ##  1  1947 January        23      51     253      23      45     198 dem      
    ##  2  1947 February       23      51     253      23      45     198 dem      
    ##  3  1947 March          23      51     253      23      45     198 dem      
    ##  4  1947 April          23      51     253      23      45     198 dem      
    ##  5  1947 May            23      51     253      23      45     198 dem      
    ##  6  1947 June           23      51     253      23      45     198 dem      
    ##  7  1947 July           23      51     253      23      45     198 dem      
    ##  8  1947 August         23      51     253      23      45     198 dem      
    ##  9  1947 September      23      51     253      23      45     198 dem      
    ## 10  1947 October        23      51     253      23      45     198 dem      
    ## # … with 812 more rows
…
<br> Read and manipulate data from “unemployment.csv”

``` r
unemploy =
  read_csv("./fivethirtyeight_datasets/unemployment.csv", show_col_types = FALSE) %>% 
  janitor::clean_names() %>% 
  pivot_longer(jan:dec, names_to = "month", values_to = "unemploy_rate") %>% 
  mutate(year = as.integer(year)) %>% # change type to integer for `year`
  mutate(month = month.name[match(str_to_title(month), month.abb)])  #acceptable?
unemploy
```

    ## # A tibble: 816 × 3
    ##     year month     unemploy_rate
    ##    <int> <chr>             <dbl>
    ##  1  1948 January             3.4
    ##  2  1948 February            3.8
    ##  3  1948 March               4  
    ##  4  1948 April               3.9
    ##  5  1948 May                 3.5
    ##  6  1948 June                3.6
    ##  7  1948 July                3.6
    ##  8  1948 August              3.9
    ##  9  1948 September           3.8
    ## 10  1948 October             3.7
    ## # … with 806 more rows

Merge `snp` into `pols`:

``` r
merge_1 = left_join(pols, snp, by = c('year', 'month'))
merge_1
```

    ## # A tibble: 822 × 10
    ##     year month   gov_gop sen_gop rep_gop gov_dem sen_dem rep_dem president close
    ##    <int> <chr>     <dbl>   <dbl>   <dbl>   <dbl>   <dbl>   <dbl> <chr>     <dbl>
    ##  1  1947 January      23      51     253      23      45     198 dem          NA
    ##  2  1947 Februa…      23      51     253      23      45     198 dem          NA
    ##  3  1947 March        23      51     253      23      45     198 dem          NA
    ##  4  1947 April        23      51     253      23      45     198 dem          NA
    ##  5  1947 May          23      51     253      23      45     198 dem          NA
    ##  6  1947 June         23      51     253      23      45     198 dem          NA
    ##  7  1947 July         23      51     253      23      45     198 dem          NA
    ##  8  1947 August       23      51     253      23      45     198 dem          NA
    ##  9  1947 Septem…      23      51     253      23      45     198 dem          NA
    ## 10  1947 October      23      51     253      23      45     198 dem          NA
    ## # … with 812 more rows
…
    ## [1] "ASIAN AND PACIFIC ISLANDER" "BLACK NON HISPANIC"        
    ## [3] "HISPANIC"                   "WHITE NON HISPANIC"

There are only four groups, which means I successfully tidy values in
`ethnicity` variable. <br> And then remove duplicate rows:

``` r
baby_names = 
  baby_names %>% 
  distinct(year_of_birth, gender, ethnicity, childs_first_name, count, rank, .keep_all = TRUE)
baby_names
```

    ## # A tibble: 12,181 × 6
    ##    year_of_birth gender ethnicity                  childs_first_name count  rank
    ##            <dbl> <chr>  <chr>                      <chr>             <dbl> <dbl>
    ##  1          2016 FEMALE ASIAN AND PACIFIC ISLANDER Olivia              172     1
    ##  2          2016 FEMALE ASIAN AND PACIFIC ISLANDER Chloe               112     2
    ##  3          2016 FEMALE ASIAN AND PACIFIC ISLANDER Sophia              104     3
    ##  4          2016 FEMALE ASIAN AND PACIFIC ISLANDER Emily                99     4
    ##  5          2016 FEMALE ASIAN AND PACIFIC ISLANDER Emma                 99     4
    ##  6          2016 FEMALE ASIAN AND PACIFIC ISLANDER Mia                  79     5
    ##  7          2016 FEMALE ASIAN AND PACIFIC ISLANDER Charlotte            59     6
    ##  8          2016 FEMALE ASIAN AND PACIFIC ISLANDER Sarah                57     7
    ##  9          2016 FEMALE ASIAN AND PACIFIC ISLANDER Isabella             56     8
    ## 10          2016 FEMALE ASIAN AND PACIFIC ISLANDER Hannah               56     8
    ## # … with 12,171 more rows
…
