…
Read and clean the Mr.Trash Wheel dataset:

``` r
wheels_df = 
  read_excel(file_path, range = "Mr. Trash Wheel!A2:N408") %>% 
  janitor::clean_names() %>%
  filter(!(is.na(dumpster))) %>% # filter out rows that don't have dumpster-specific data
  mutate(sports_balls = round(sports_balls, 0)) # round sports_balls to nearest integer
wheels_df
```

    ## # A tibble: 344 × 14
    ##    dumpster month  year date                weight_tons volume_cubic_yards
    ##       <dbl> <chr> <dbl> <dttm>                    <dbl>              <dbl>
    ##  1        1 May    2014 2014-05-16 00:00:00        4.31                 18
    ##  2        2 May    2014 2014-05-16 00:00:00        2.74                 13
    ##  3        3 May    2014 2014-05-16 00:00:00        3.45                 15
    ##  4        4 May    2014 2014-05-17 00:00:00        3.1                  15
    ##  5        5 May    2014 2014-05-17 00:00:00        4.06                 18
    ##  6        6 May    2014 2014-05-20 00:00:00        2.71                 13
    ##  7        7 May    2014 2014-05-21 00:00:00        1.91                  8
    ##  8        8 May    2014 2014-05-28 00:00:00        3.7                  16
    ##  9        9 June   2014 2014-06-05 00:00:00        2.52                 14
    ## 10       10 June   2014 2014-06-11 00:00:00        3.76                 18
    ## # … with 334 more rows, and 8 more variables: plastic_bottles <dbl>,
    ## #   polystyrene <dbl>, cigarette_butts <dbl>, glass_bottles <dbl>,
    ## #   grocery_bags <dbl>, chip_bags <dbl>, sports_balls <dbl>,
    ## #   homes_powered <dbl>
…
## Problem 2

Read and manipulate data from “pols-month.csv”

``` r
pols = 
  read_csv("./fivethirtyeight_datasets/pols-month.csv", show_col_types = FALSE) %>% 
  separate(mon, into = c('year', 'month', 'day'), sep = "-", convert = TRUE) %>% 
  mutate(month = month.name[month]) %>% 
  select(-c(prez_dem, prez_gop, day))
pols
```

    ## # A tibble: 822 × 8
    ##     year month     gov_gop sen_gop rep_gop gov_dem sen_dem rep_dem
    ##    <int> <chr>       <dbl>   <dbl>   <dbl>   <dbl>   <dbl>   <dbl>
    ##  1  1947 January        23      51     253      23      45     198
    ##  2  1947 February       23      51     253      23      45     198
    ##  3  1947 March          23      51     253      23      45     198
    ##  4  1947 April          23      51     253      23      45     198
    ##  5  1947 May            23      51     253      23      45     198
    ##  6  1947 June           23      51     253      23      45     198
    ##  7  1947 July           23      51     253      23      45     198
    ##  8  1947 August         23      51     253      23      45     198
    ##  9  1947 September      23      51     253      23      45     198
    ## 10  1947 October        23      51     253      23      45     198
    ## # … with 812 more rows
<br> Read and manipulate data from “snp.csv”

``` r
snp = 
  read_csv("./fivethirtyeight_datasets/snp.csv", show_col_types = FALSE) %>% 
  mutate(date = mdy(date)) %>% 
  separate(date, into = c('year', 'month', 'day'), sep = "-", convert = TRUE) %>% 
  mutate(month = month.name[month]) %>% 
  arrange(year, month) %>%
  select(-day) %>% 
  select(year, month, everything())
snp
```

    ## # A tibble: 787 × 3
    ##     year month    close
    ##    <int> <chr>    <dbl>
    ##  1  1969 April    104. 
    ##  2  1969 August    95.5
    ##  3  1969 December  92.1
    ##  4  1969 February  98.1
    ##  5  1969 January  103. 
    ##  6  1969 July      91.8
    ##  7  1969 June      97.7
    ##  8  1969 March    102. 
    ##  9  1969 May      103. 
    ## 10  1969 November  93.8
    ## # … with 777 more rows

<br> Read and manipulate data from “unemployment.csv”

``` r
unemploy =
  read_csv("./fivethirtyeight_datasets/unemployment.csv", show_col_types = FALSE) %>% 
  janitor::clean_names() %>% 
  pivot_longer(jan:dec, names_to = "month", values_to = "unemploy_rate") %>% 
  mutate(year = as.integer(year)) %>% # change type to integer for `year`
  mutate(month = month.name[match(str_to_title(month), month.abb)])  #acceptable?
unemploy
```

    ## # A tibble: 816 × 3
    ##     year month     unemploy_rate
    ##    <int> <chr>             <dbl>
    ##  1  1948 January             3.4
    ##  2  1948 February            3.8
    ##  3  1948 March               4  
    ##  4  1948 April               3.9
    ##  5  1948 May                 3.5
    ##  6  1948 June                3.6
    ##  7  1948 July                3.6
    ##  8  1948 August              3.9
    ##  9  1948 September           3.8
    ## 10  1948 October             3.7
    ## # … with 806 more rows
…
    ## [1] "ASIAN AND PACIFIC ISLANDER" "BLACK NON HISPANIC"        
    ## [3] "HISPANIC"                   "WHITE NON HISPANIC"

There are only four groups, which means I successfully tidy values in
`ethnicity` variable. <br> And then remove duplicate rows:

``` r
baby_names = 
  baby_names %>% 
  distinct(year_of_birth, gender, ethnicity, childs_first_name, count, rank, .keep_all = TRUE)
baby_names
```

    ## # A tibble: 12,181 × 6
    ##    year_of_birth gender ethnicity                  childs_first_name count  rank
    ##            <dbl> <chr>  <chr>                      <chr>             <dbl> <dbl>
    ##  1          2016 FEMALE ASIAN AND PACIFIC ISLANDER Olivia              172     1
    ##  2          2016 FEMALE ASIAN AND PACIFIC ISLANDER Chloe               112     2
    ##  3          2016 FEMALE ASIAN AND PACIFIC ISLANDER Sophia              104     3
    ##  4          2016 FEMALE ASIAN AND PACIFIC ISLANDER Emily                99     4
    ##  5          2016 FEMALE ASIAN AND PACIFIC ISLANDER Emma                 99     4
    ##  6          2016 FEMALE ASIAN AND PACIFIC ISLANDER Mia                  79     5
    ##  7          2016 FEMALE ASIAN AND PACIFIC ISLANDER Charlotte            59     6
    ##  8          2016 FEMALE ASIAN AND PACIFIC ISLANDER Sarah                57     7
    ##  9          2016 FEMALE ASIAN AND PACIFIC ISLANDER Isabella             56     8
    ## 10          2016 FEMALE ASIAN AND PACIFIC ISLANDER Hannah               56     8
    ## # … with 12,171 more rows

<br> How the name **Olivia** change overtime

``` r
olivias = 
  baby_names %>% 
  filter(childs_first_name == "Olivia") %>% 
  select(-c(childs_first_name, gender))
olivias
```

    ## # A tibble: 24 × 4
    ##    year_of_birth ethnicity                  count  rank
    ##            <dbl> <chr>                      <dbl> <dbl>
    ##  1          2016 ASIAN AND PACIFIC ISLANDER   172     1
    ##  2          2016 BLACK NON HISPANIC            49     8
    ##  3          2016 HISPANIC                     108    13
    ##  4          2016 WHITE NON HISPANIC           230     1
    ##  5          2015 ASIAN AND PACIFIC ISLANDER   188     1
    ##  6          2015 BLACK NON HISPANIC            82     4
    ##  7          2015 HISPANIC                      94    16
    ##  8          2015 WHITE NON HISPANIC           225     1
    ##  9          2014 ASIAN AND PACIFIC ISLANDER   141     1
    ## 10          2014 BLACK NON HISPANIC            52     8
    ## # … with 14 more rows

Popular boys names

``` r
# search for the most popular names for boys
boys = 
  baby_names %>% 
  filter(rank == 1 & gender == "MALE")
boys
```

    ## # A tibble: 24 × 6
    ##    year_of_birth gender ethnicity                  childs_first_name count  rank
    ##            <dbl> <chr>  <chr>                      <chr>             <dbl> <dbl>
    ##  1          2016 MALE   ASIAN AND PACIFIC ISLANDER Ethan               193     1
    ##  2          2016 MALE   BLACK NON HISPANIC         Noah                148     1
    ##  3          2016 MALE   HISPANIC                   Liam                387     1
    ##  4          2016 MALE   WHITE NON HISPANIC         Joseph              261     1
    ##  5          2015 MALE   ASIAN AND PACIFIC ISLANDER Jayden              190     1
    ##  6          2015 MALE   BLACK NON HISPANIC         Noah                163     1
    ##  7          2015 MALE   HISPANIC                   Liam                356     1
    ##  8          2015 MALE   WHITE NON HISPANIC         David               299     1
    ##  9          2014 MALE   ASIAN AND PACIFIC ISLANDER Jayden              187     1
    ## 10          2014 MALE   BLACK NON HISPANIC         Ethan               138     1
    ## # … with 14 more rows
